{
	"info": {
		"_postman_id": "7c7517df-215e-406c-8cd6-47bb06a999b7",
		"name": "CaseAuto",
		"schema": "https://schema.getpostman.com/json/collection/v2.1.0/collection.json"
	},
	"item": [
		{
			"name": "Gera novo token",
			"event": [
				{
					"listen": "test",
					"script": {
						"id": "3ff253a6-b2ee-4b5d-8107-82090b608cba",
						"exec": [
							"var respBody = pm.response.json();\r",
							"\r",
							"pm.environment.set(\"OAUTH_TOKEN\", respBody.access_token);\r",
							"\r",
							"pm.test(\"HTTP Status igual a 200 OK\", function () {\r",
							"    pm.response.to.have.status(200);\r",
							"})\r",
							"pm.test(\"Resposta contem access_token\", function () {\r",
							"    pm.expect(respBody.access_token).not.empty;\r",
							"});"
						],
						"type": "text/javascript"
					}
				}
			],
			"request": {
				"auth": {
					"type": "basic",
					"basic": [
						{
							"key": "password",
							"value": "auto1",
							"type": "string"
						},
						{
							"key": "username",
							"value": "auto1",
							"type": "string"
						}
					]
				},
				"method": "POST",
				"header": [],
				"body": {
					"mode": "formdata",
					"formdata": [
						{
							"key": "grant_type",
							"value": "password",
							"type": "text"
						},
						{
							"key": "username",
							"value": "Pedro",
							"type": "text"
						},
						{
							"key": "password",
							"value": "12345",
							"type": "text"
						}
					]
				},
				"url": {
					"raw": "{{URL_GATEWAY_AWS}}/auth/oauth/token",
					"host": [
						"{{URL_GATEWAY_AWS}}"
					],
					"path": [
						"auth",
						"oauth",
						"token"
					]
				}
			},
			"response": []
		},
		{
			"name": "Cadastra novo automóvel",
			"event": [
				{
					"listen": "test",
					"script": {
						"id": "c57a7ac5-5351-49d4-8422-0b6493446979",
						"exec": [
							"var respBody = pm.response.json();\r",
							"\r",
							"pm.test(\"HTTP Status igual a 201 Created\", function () {\r",
							"    pm.response.to.have.status(201);\r",
							"})\r",
							"pm.test(\"Resposta contem id\", function () {\r",
							"    pm.expect(respBody.id).exist;\r",
							"});"
						],
						"type": "text/javascript"
					}
				}
			],
			"request": {
				"auth": {
					"type": "bearer",
					"bearer": [
						{
							"key": "token",
							"value": "{{OAUTH_TOKEN}}",
							"type": "string"
						}
					]
				},
				"method": "POST",
				"header": [],
				"body": {
					"mode": "raw",
					"raw": "{\r\n    \"marca\": \"Fiat\",\r\n    \"modelo\": \"Uno\",\r\n    \"valor\": \"20.000,00\",\r\n    \"dataCadastro\": \"01/01/2020\"\r\n}",
					"options": {
						"raw": {
							"language": "json"
						}
					}
				},
				"url": {
					"raw": "{{URL_GATEWAY_AWS}}/auto/v1/automoveis",
					"host": [
						"{{URL_GATEWAY_AWS}}"
					],
					"path": [
						"auto",
						"v1",
						"automoveis"
					]
				}
			},
			"response": []
		},
		{
			"name": "Busca todos automóveis",
			"event": [
				{
					"listen": "test",
					"script": {
						"id": "0a96818b-1878-4f38-bf1e-464b67b78586",
						"exec": [
							"var respBody = pm.response.json();\r",
							"\r",
							"pm.test(\"HTTP Status igual a 200 OK\", function () {\r",
							"    pm.response.to.have.status(200);\r",
							"})\r",
							"pm.test(\"Resposta contem automovel\", function () {\r",
							"   pm.expect(respBody.length).to.above(0);\r",
							"});"
						],
						"type": "text/javascript"
					}
				}
			],
			"request": {
				"auth": {
					"type": "bearer",
					"bearer": [
						{
							"key": "token",
							"value": "{{OAUTH_TOKEN}}",
							"type": "string"
						}
					]
				},
				"method": "GET",
				"header": [],
				"url": {
					"raw": "{{URL_GATEWAY_AWS}}/auto/v1/automoveis",
					"host": [
						"{{URL_GATEWAY_AWS}}"
					],
					"path": [
						"auto",
						"v1",
						"automoveis"
					]
				}
			},
			"response": []
		},
		{
			"name": "Cadastra novo boleto",
			"event": [
				{
					"listen": "test",
					"script": {
						"id": "2c26e708-6fc7-43b6-ba4b-b0ac1029e5b7",
						"exec": [
							"var respBody = pm.response.json();\r",
							"\r",
							"pm.test(\"HTTP Status igual a 201 Created\", function () {\r",
							"    pm.response.to.have.status(201);\r",
							"})\r",
							"pm.test(\"Resposta contem codigo\", function () {\r",
							"    pm.expect(respBody.codigo).exist;\r",
							"});"
						],
						"type": "text/javascript"
					}
				}
			],
			"request": {
				"auth": {
					"type": "bearer",
					"bearer": [
						{
							"key": "token",
							"value": "{{OAUTH_TOKEN}}",
							"type": "string"
						}
					]
				},
				"method": "POST",
				"header": [],
				"body": {
					"mode": "raw",
					"raw": "{\r\n    \"marca\": \"Chevrolet\",\r\n    \"modelo\": \"Onix\",\r\n    \"valor\": \"30.000,00\",\r\n    \"dataVencimento\": \"01/11/2020\"\r\n}",
					"options": {
						"raw": {
							"language": "json"
						}
					}
				},
				"url": {
					"raw": "{{URL_GATEWAY_AWS}}/auto/v1/boletos",
					"host": [
						"{{URL_GATEWAY_AWS}}"
					],
					"path": [
						"auto",
						"v1",
						"boletos"
					]
				}
			},
			"response": []
		}
	],
	"event": [
		{
			"listen": "prerequest",
			"script": {
				"id": "f92c6d20-7ebb-4b85-bc3e-798fae54c2e9",
				"type": "text/javascript",
				"exec": [
					""
				]
			}
		},
		{
			"listen": "test",
			"script": {
				"id": "adf43681-8c44-4356-932f-398c7b46c5f3",
				"type": "text/javascript",
				"exec": [
					""
				]
			}
		}
	],
	"variable": [
		{
			"id": "4b9d4544-ee53-42e9-912d-934dadc3ac7b",
			"key": "OAUTH_TOKEN",
			"value": "a"
		},
		{
			"id": "521e1e9a-1be4-4b3a-8aed-46f3f7b1fc98",
			"key": "URL_GATEWAY_AWS",
			"value": "18.228.61.168:5000"
		}
	],
	"protocolProfileBehavior": {}
}